\relax 
\citation{Luo15}
\citation{Ji12}
\citation{Xue08}
\citation{Luo15}
\citation{Ji12}
\citation{Xue08}
\citation{Ellis1997}
\citation{TAPoRware}
\citation{MedAbbr}
\citation{Ramos2003}
\citation{Ramos2003}
\citation{Merriam}
\citation{Lancaster}
\@writefile{toc}{\contentsline {section}{\numberline {I}Introduction}{1}}
\@writefile{toc}{\contentsline {section}{\numberline {II}Related Work}{1}}
\@writefile{toc}{\contentsline {section}{\numberline {III}Methodology}{1}}
\@writefile{toc}{\contentsline {subsection}{\numberline {\unhbox \voidb@x \hbox {III-A}}Pre-processing}{1}}
\@writefile{toc}{\contentsline {subsection}{\numberline {\unhbox \voidb@x \hbox {III-B}}Scoring}{1}}
\@writefile{toc}{\contentsline {subsection}{\numberline {\unhbox \voidb@x \hbox {III-C}}Relevance heuristics}{1}}
\citation{Ward1996}
\citation{Deerwester1990}
\citation{Ponte1998}
\citation{Leacock1998}
\bibstyle{IEEEtran}
\bibdata{goldenretriver}
\bibcite{Luo15}{1}
\bibcite{Ji12}{2}
\bibcite{Xue08}{3}
\bibcite{Ellis1997}{4}
\bibcite{TAPoRware}{5}
\bibcite{MedAbbr}{6}
\bibcite{Ramos2003}{7}
\bibcite{Merriam}{8}
\bibcite{Lancaster}{9}
\bibcite{Ward1996}{10}
\bibcite{Deerwester1990}{11}
\bibcite{Ponte1998}{12}
\bibcite{Leacock1998}{13}
\@writefile{toc}{\contentsline {subsection}{\numberline {\unhbox \voidb@x \hbox {III-D}}Semantic relatedness}{2}}
\@writefile{toc}{\contentsline {section}{\numberline {IV}Results}{2}}
\@writefile{toc}{\contentsline {section}{\numberline {V}Conclusion}{2}}
\@writefile{toc}{\contentsline {section}{References}{2}}
